info face="Orbitron-Medium" size=14 bold=0 italic=0 charset="" unicode=0 stretchH=100 smooth=1 aa=1 padding=1,1,1,1 spacing=-2,-2
common lineHeight=15 base=11 scaleW=128 scaleH=128 pages=1 packed=0
page id=0 file="orbitron.png"
chars count=95
char id=10    x=0    y=0    width=0    height=0    xoffset=0    yoffset=0    xadvance=0    page=0    chnl=0 
char id=32    x=0    y=0    width=0    height=0    xoffset=-1   yoffset=10   xadvance=4    page=0    chnl=0 
char id=33    x=117  y=41   width=4    height=12   xoffset=0    yoffset=0    xadvance=3    page=0    chnl=0 
char id=34    x=25   y=87   width=6    height=5    xoffset=0    yoffset=0    xadvance=5    page=0    chnl=0 
char id=35    x=45   y=65   width=12   height=12   xoffset=0    yoffset=0    xadvance=12   page=0    chnl=0 
char id=36    x=12   y=0    width=13   height=15   xoffset=0    yoffset=-1   xadvance=12   page=0    chnl=0 
char id=37    x=30   y=65   width=15   height=12   xoffset=0    yoffset=0    xadvance=14   page=0    chnl=0 
char id=38    x=57   y=65   width=14   height=12   xoffset=0    yoffset=0    xadvance=14   page=0    chnl=0 
char id=39    x=36   y=87   width=4    height=5    xoffset=0    yoffset=0    xadvance=3    page=0    chnl=0 
char id=40    x=95   y=53   width=5    height=12   xoffset=0    yoffset=0    xadvance=4    page=0    chnl=0 
char id=41    x=100  y=53   width=5    height=12   xoffset=0    yoffset=0    xadvance=4    page=0    chnl=0 
char id=42    x=9    y=87   width=9    height=8    xoffset=-1   yoffset=0    xadvance=7    page=0    chnl=0 
char id=43    x=118  y=77   width=8    height=8    xoffset=0    yoffset=3    xadvance=8    page=0    chnl=0 
char id=44    x=123  y=65   width=4    height=6    xoffset=0    yoffset=9    xadvance=3    page=0    chnl=0 
char id=45    x=40   y=87   width=8    height=5    xoffset=0    yoffset=4    xadvance=8    page=0    chnl=0 
char id=46    x=60   y=87   width=4    height=4    xoffset=0    yoffset=8    xadvance=3    page=0    chnl=0 
char id=47    x=0    y=65   width=9    height=12   xoffset=0    yoffset=0    xadvance=9    page=0    chnl=0 
char id=48    x=71   y=53   width=12   height=12   xoffset=0    yoffset=0    xadvance=12   page=0    chnl=0 
char id=49    x=85   y=41   width=8    height=12   xoffset=-2   yoffset=0    xadvance=5    page=0    chnl=0 
char id=50    x=93   y=41   width=12   height=12   xoffset=0    yoffset=0    xadvance=12   page=0    chnl=0 
char id=51    x=105  y=41   width=12   height=12   xoffset=0    yoffset=0    xadvance=12   page=0    chnl=0 
char id=52    x=0    y=53   width=12   height=12   xoffset=0    yoffset=0    xadvance=12   page=0    chnl=0 
char id=53    x=12   y=53   width=12   height=12   xoffset=0    yoffset=0    xadvance=12   page=0    chnl=0 
char id=54    x=24   y=53   width=12   height=12   xoffset=0    yoffset=0    xadvance=12   page=0    chnl=0 
char id=55    x=36   y=53   width=11   height=12   xoffset=-1   yoffset=0    xadvance=9    page=0    chnl=0 
char id=56    x=47   y=53   width=12   height=12   xoffset=0    yoffset=0    xadvance=12   page=0    chnl=0 
char id=57    x=59   y=53   width=12   height=12   xoffset=0    yoffset=0    xadvance=12   page=0    chnl=0 
char id=58    x=119  y=65   width=4    height=10   xoffset=0    yoffset=2    xadvance=3    page=0    chnl=0 
char id=59    x=121  y=41   width=4    height=12   xoffset=0    yoffset=2    xadvance=3    page=0    chnl=0 
char id=60    x=71   y=65   width=8    height=11   xoffset=0    yoffset=1    xadvance=8    page=0    chnl=0 
char id=61    x=0    y=87   width=9    height=8    xoffset=0    yoffset=3    xadvance=9    page=0    chnl=0 
char id=62    x=79   y=65   width=8    height=11   xoffset=0    yoffset=1    xadvance=8    page=0    chnl=0 
char id=63    x=83   y=53   width=12   height=12   xoffset=-1   yoffset=0    xadvance=10   page=0    chnl=0 
char id=64    x=9    y=65   width=12   height=12   xoffset=0    yoffset=0    xadvance=12   page=0    chnl=0 
char id=65    x=11   y=16   width=12   height=12   xoffset=0    yoffset=0    xadvance=12   page=0    chnl=0 
char id=66    x=23   y=16   width=12   height=12   xoffset=0    yoffset=0    xadvance=12   page=0    chnl=0 
char id=67    x=35   y=16   width=13   height=12   xoffset=0    yoffset=0    xadvance=12   page=0    chnl=0 
char id=68    x=48   y=16   width=12   height=12   xoffset=0    yoffset=0    xadvance=12   page=0    chnl=0 
char id=69    x=60   y=16   width=12   height=12   xoffset=0    yoffset=0    xadvance=11   page=0    chnl=0 
char id=70    x=72   y=16   width=12   height=12   xoffset=0    yoffset=0    xadvance=10   page=0    chnl=0 
char id=71    x=84   y=16   width=12   height=12   xoffset=0    yoffset=0    xadvance=12   page=0    chnl=0 
char id=72    x=96   y=16   width=13   height=12   xoffset=0    yoffset=0    xadvance=12   page=0    chnl=0 
char id=73    x=109  y=16   width=4    height=12   xoffset=0    yoffset=0    xadvance=3    page=0    chnl=0 
char id=74    x=113  y=16   width=12   height=12   xoffset=0    yoffset=0    xadvance=12   page=0    chnl=0 
char id=75    x=0    y=29   width=12   height=12   xoffset=0    yoffset=0    xadvance=11   page=0    chnl=0 
char id=76    x=12   y=29   width=13   height=12   xoffset=0    yoffset=0    xadvance=11   page=0    chnl=0 
char id=77    x=25   y=29   width=14   height=12   xoffset=0    yoffset=0    xadvance=13   page=0    chnl=0 
char id=78    x=39   y=29   width=12   height=12   xoffset=0    yoffset=0    xadvance=12   page=0    chnl=0 
char id=79    x=51   y=29   width=12   height=12   xoffset=0    yoffset=0    xadvance=12   page=0    chnl=0 
char id=80    x=63   y=29   width=12   height=12   xoffset=0    yoffset=0    xadvance=12   page=0    chnl=0 
char id=81    x=75   y=29   width=14   height=12   xoffset=0    yoffset=0    xadvance=13   page=0    chnl=0 
char id=82    x=89   y=29   width=12   height=12   xoffset=0    yoffset=0    xadvance=12   page=0    chnl=0 
char id=83    x=101  y=29   width=12   height=12   xoffset=0    yoffset=0    xadvance=12   page=0    chnl=0 
char id=84    x=113  y=29   width=12   height=12   xoffset=0    yoffset=0    xadvance=12   page=0    chnl=0 
char id=85    x=0    y=41   width=12   height=12   xoffset=0    yoffset=0    xadvance=12   page=0    chnl=0 
char id=86    x=12   y=41   width=16   height=12   xoffset=-1   yoffset=0    xadvance=14   page=0    chnl=0 
char id=87    x=28   y=41   width=19   height=12   xoffset=-1   yoffset=0    xadvance=17   page=0    chnl=0 
char id=88    x=47   y=41   width=12   height=12   xoffset=0    yoffset=0    xadvance=12   page=0    chnl=0 
char id=89    x=59   y=41   width=14   height=12   xoffset=-1   yoffset=0    xadvance=11   page=0    chnl=0 
char id=90    x=73   y=41   width=12   height=12   xoffset=0    yoffset=0    xadvance=12   page=0    chnl=0 
char id=91    x=105  y=53   width=5    height=12   xoffset=0    yoffset=0    xadvance=4    page=0    chnl=0 
char id=92    x=21   y=65   width=9    height=12   xoffset=0    yoffset=0    xadvance=9    page=0    chnl=0 
char id=93    x=110  y=53   width=5    height=12   xoffset=0    yoffset=0    xadvance=4    page=0    chnl=0 
char id=95    x=48   y=87   width=12   height=5    xoffset=0    yoffset=9    xadvance=12   page=0    chnl=0 
char id=96    x=31   y=87   width=5    height=5    xoffset=-1   yoffset=-4   xadvance=3    page=0    chnl=0 
char id=97    x=87   y=65   width=10   height=10   xoffset=0    yoffset=2    xadvance=10   page=0    chnl=0 
char id=98    x=25   y=0    width=11   height=13   xoffset=0    yoffset=-1   xadvance=10   page=0    chnl=0 
char id=99    x=97   y=65   width=11   height=10   xoffset=0    yoffset=2    xadvance=10   page=0    chnl=0 
char id=100   x=36   y=0    width=10   height=13   xoffset=0    yoffset=-1   xadvance=10   page=0    chnl=0 
char id=101   x=108  y=65   width=11   height=10   xoffset=0    yoffset=2    xadvance=10   page=0    chnl=0 
char id=102   x=46   y=0    width=7    height=13   xoffset=0    yoffset=-1   xadvance=6    page=0    chnl=0 
char id=103   x=53   y=0    width=11   height=13   xoffset=0    yoffset=2    xadvance=10   page=0    chnl=0 
char id=104   x=64   y=0    width=11   height=13   xoffset=0    yoffset=-1   xadvance=10   page=0    chnl=0 
char id=105   x=75   y=0    width=4    height=13   xoffset=0    yoffset=-1   xadvance=3    page=0    chnl=0 
char id=106   x=0    y=0    width=8    height=16   xoffset=-4   yoffset=-1   xadvance=3    page=0    chnl=0 
char id=107   x=79   y=0    width=10   height=13   xoffset=0    yoffset=-1   xadvance=10   page=0    chnl=0 
char id=108   x=89   y=0    width=6    height=13   xoffset=0    yoffset=-1   xadvance=5    page=0    chnl=0 
char id=109   x=0    y=77   width=15   height=10   xoffset=0    yoffset=2    xadvance=14   page=0    chnl=0 
char id=110   x=15   y=77   width=11   height=10   xoffset=0    yoffset=2    xadvance=10   page=0    chnl=0 
char id=111   x=26   y=77   width=11   height=10   xoffset=0    yoffset=2    xadvance=10   page=0    chnl=0 
char id=112   x=95   y=0    width=11   height=13   xoffset=0    yoffset=2    xadvance=10   page=0    chnl=0 
char id=113   x=106  y=0    width=11   height=13   xoffset=0    yoffset=2    xadvance=10   page=0    chnl=0 
char id=114   x=37   y=77   width=9    height=10   xoffset=0    yoffset=2    xadvance=7    page=0    chnl=0 
char id=115   x=46   y=77   width=11   height=10   xoffset=0    yoffset=2    xadvance=10   page=0    chnl=0 
char id=116   x=117  y=0    width=7    height=13   xoffset=0    yoffset=-1   xadvance=6    page=0    chnl=0 
char id=117   x=57   y=77   width=11   height=10   xoffset=0    yoffset=2    xadvance=10   page=0    chnl=0 
char id=118   x=68   y=77   width=13   height=10   xoffset=-1   yoffset=2    xadvance=11   page=0    chnl=0 
char id=119   x=81   y=77   width=17   height=10   xoffset=-1   yoffset=2    xadvance=15   page=0    chnl=0 
char id=120   x=98   y=77   width=10   height=10   xoffset=0    yoffset=2    xadvance=10   page=0    chnl=0 
char id=121   x=0    y=16   width=11   height=13   xoffset=0    yoffset=2    xadvance=10   page=0    chnl=0 
char id=122   x=108  y=77   width=10   height=10   xoffset=0    yoffset=2    xadvance=10   page=0    chnl=0 
char id=123   x=115  y=53   width=6    height=12   xoffset=-1   yoffset=0    xadvance=4    page=0    chnl=0 
char id=124   x=8    y=0    width=4    height=15   xoffset=0    yoffset=-2   xadvance=3    page=0    chnl=0 
char id=125   x=121  y=53   width=5    height=12   xoffset=0    yoffset=0    xadvance=5    page=0    chnl=0 
char id=126   x=18   y=87   width=7    height=6    xoffset=0    yoffset=4    xadvance=7    page=0    chnl=0 
kernings count=35
kerning first=115 second=120 amount=-1
kerning first=32 second=97 amount=1
kerning first=106 second=106 amount=2
kerning first=97 second=119 amount=-1
kerning first=89 second=111 amount=-1
kerning first=87 second=97 amount=-1
kerning first=103 second=106 amount=3
kerning first=118 second=101 amount=-1
kerning first=102 second=44 amount=-1
kerning first=103 second=119 amount=-1
kerning first=87 second=111 amount=-1
kerning first=89 second=115 amount=-1
kerning first=79 second=87 amount=-1
kerning first=119 second=101 amount=-1
kerning first=97 second=118 amount=-1
kerning first=111 second=119 amount=-1
kerning first=111 second=120 amount=-1
kerning first=76 second=87 amount=-2
kerning first=101 second=118 amount=-1
kerning first=76 second=86 amount=-2
kerning first=115 second=118 amount=-1
kerning first=108 second=119 amount=-1
kerning first=121 second=106 amount=2
kerning first=87 second=101 amount=-1
kerning first=66 second=86 amount=-1
kerning first=80 second=74 amount=-1
kerning first=70 second=74 amount=-1
kerning first=87 second=117 amount=-1
kerning first=70 second=84 amount=1
kerning first=89 second=101 amount=-1
kerning first=114 second=44 amount=-1
kerning first=79 second=86 amount=-1
kerning first=101 second=119 amount=-1
kerning first=76 second=89 amount=-2
kerning first=113 second=106 amount=3
