{
  com.badlogic.gdx.graphics.g2d.BitmapFont: {
    default-font: { file: orbitron.fnt },
    score-font:{ file: desertchrome.fnt }
  },
  com.badlogic.gdx.graphics.Color: {
    green: { a: 1, b: 0, g: 1, r: 0 },
    white: { a: 1, b: 1, g: 1, r: 1 },
    red: { a: 1, b: 0, g: 0, r: 1 },
    black: { a: 1, b: 0, g: 0, r: 0 },
    fade: { a:0.4, b: 1, g: 1, r: 1 },
    score-colour: { a:0.9, b: 1, g: 1, r: 1 }
  },
  com.badlogic.gdx.scenes.scene2d.ui.Skin$TintedDrawable: {
  dialogDim: { name: gui/white, color: { r: 0, g: 0, b: 0, a: 0.45 } }
  },
  com.badlogic.gdx.scenes.scene2d.ui.Button$ButtonStyle: {
    default: { down: gui/button_down, up: gui/button_up }
  },
  com.badlogic.gdx.scenes.scene2d.ui.TextButton$TextButtonStyle: {
    default: { down: gui/button_down, up: gui/button_up, font: default-font, fontColor: white }
  },
  com.badlogic.gdx.scenes.scene2d.ui.Window$WindowStyle: {
    default: { titleFont: default-font, background: gui/panel, titleFontColor: white },
    dialog: { titleFont: default-font, background: gui/panel, titleFontColor: white, stageBackground: dialogDim }
  },
  com.badlogic.gdx.scenes.scene2d.ui.Label$LabelStyle: {
    default: { font: default-font, fontColor: white },
    score: { font: score-font, fontColor: white }
  },
  com.badlogic.gdx.scenes.scene2d.ui.TextField$TextFieldStyle:{
    default: { font: default-font, fontColor: white }
  }
}