<?xml version="1.0" encoding="UTF-8" standalone="no"?>
<!-- Created with Inkscape (http://www.inkscape.org/) -->

<svg
   xmlns:dc="http://purl.org/dc/elements/1.1/"
   xmlns:cc="http://creativecommons.org/ns#"
   xmlns:rdf="http://www.w3.org/1999/02/22-rdf-syntax-ns#"
   xmlns:svg="http://www.w3.org/2000/svg"
   xmlns="http://www.w3.org/2000/svg"
   xmlns:xlink="http://www.w3.org/1999/xlink"
   xmlns:sodipodi="http://sodipodi.sourceforge.net/DTD/sodipodi-0.dtd"
   xmlns:inkscape="http://www.inkscape.org/namespaces/inkscape"
   width="210mm"
   height="297mm"
   viewBox="0 0 744.09448819 1052.3622047"
   id="svg3348"
   version="1.1"
   inkscape:version="0.91 r13725"
   sodipodi:docname="level1.svg">
  <defs
     id="defs3350">
    <pattern
       inkscape:collect="always"
       xlink:href="#dryrock"
       id="pattern5032"
       patternTransform="translate(346.17749,249.80222)" />
    <pattern
       inkscape:collect="always"
       xlink:href="#smallrock"
       id="pattern5852"
       patternTransform="matrix(0.4034717,0,0,0.46129843,359.12797,459.20125)" />
    <pattern
       patternUnits="userSpaceOnUse"
       width="128"
       height="128"
       patternTransform="translate(489.24417,171.21469)"
       id="tarmac">
      <image
         sodipodi:absref="/Users/matthewlander/Documents/dev/spacetrucker/android/assets/levels/textures/tarmac.png"
         xlink:href="textures/tarmac.png"
         y="0"
         x="0"
         id="image5039"
         preserveAspectRatio="none"
         height="128"
         width="128" />
    </pattern>
    <pattern
       patternUnits="userSpaceOnUse"
       width="128"
       height="128"
       patternTransform="translate(345.8826,223.12213)"
       id="smallrock">
      <image
         sodipodi:absref="/Users/matthewlander/Documents/dev/spacetrucker/android/assets/levels/textures/smallrock.png"
         xlink:href="textures/smallrock.png"
         y="0"
         x="0"
         id="image5028"
         preserveAspectRatio="none"
         height="128"
         width="128" />
    </pattern>
    <pattern
       patternUnits="userSpaceOnUse"
       width="128"
       height="128"
       patternTransform="translate(346.17749,223.12213)"
       id="rock">
      <image
         sodipodi:absref="/Users/matthewlander/Documents/dev/spacetrucker/android/assets/levels/textures/rock.png"
         xlink:href="textures/rock.png"
         y="0"
         x="0"
         id="image5017"
         preserveAspectRatio="none"
         height="128"
         width="128" />
    </pattern>
    <pattern
       patternUnits="userSpaceOnUse"
       width="128"
       height="128"
       patternTransform="translate(346.17749,222.53235)"
       id="dryrock">
      <image
         sodipodi:absref="/Users/matthewlander/Documents/dev/spacetrucker/android/assets/levels/textures/dryrock.png"
         xlink:href="textures/dryrock.png"
         y="0"
         x="0"
         id="image5006"
         preserveAspectRatio="none"
         height="128"
         width="128" />
    </pattern>
    <pattern
       patternUnits="userSpaceOnUse"
       width="128"
       height="128"
       patternTransform="translate(345.58771,222.53235)"
       id="desert">
      <image
         sodipodi:absref="/Users/matthewlander/Documents/dev/spacetrucker/android/assets/levels/textures/desert.png"
         xlink:href="textures/desert.png"
         y="0"
         x="0"
         id="image4995"
         preserveAspectRatio="none"
         height="128"
         width="128" />
    </pattern>
    <pattern
       patternUnits="userSpaceOnUse"
       width="128"
       height="128"
       patternTransform="translate(345.58771,222.82724)"
       id="cracked">
      <image
         sodipodi:absref="/Users/matthewlander/Documents/dev/spacetrucker/android/assets/levels/textures/cracked.png"
         xlink:href="textures/cracked.png"
         y="0"
         x="0"
         id="image4984"
         preserveAspectRatio="none"
         height="128"
         width="128" />
    </pattern>
    <pattern
       patternUnits="userSpaceOnUse"
       width="128"
       height="128"
       patternTransform="translate(346.17749,220.17326)"
       id="bigrock">
      <image
         sodipodi:absref="/Users/matthewlander/Documents/dev/spacetrucker/android/assets/levels/textures/bigrock.png"
         xlink:href="textures/bigrock.png"
         y="0"
         x="0"
         id="image4973"
         preserveAspectRatio="none"
         height="128"
         width="128" />
    </pattern>
  </defs>
  <sodipodi:namedview
     id="base"
     pagecolor="#ffffff"
     bordercolor="#666666"
     borderopacity="1.0"
     inkscape:pageopacity="0.0"
     inkscape:pageshadow="2"
     inkscape:zoom="1.2834681"
     inkscape:cx="404.25414"
     inkscape:cy="183.75299"
     inkscape:document-units="px"
     inkscape:current-layer="deep"
     showgrid="false"
     inkscape:window-width="1280"
     inkscape:window-height="687"
     inkscape:window-x="0"
     inkscape:window-y="1"
     inkscape:window-maximized="1"
     showguides="true"
     inkscape:guide-bbox="true" />
  <metadata
     id="metadata3353">
    <rdf:RDF>
      <cc:Work
         rdf:about="">
        <dc:format>image/svg+xml</dc:format>
        <dc:type
           rdf:resource="http://purl.org/dc/dcmitype/StillImage" />
        <dc:title />
      </cc:Work>
    </rdf:RDF>
  </metadata>
  <g
     inkscape:groupmode="layer"
     id="back"
     inkscape:label="back">
    <path
       style="fill:url(#pattern5032);fill-opacity:1;fill-rule:evenodd;stroke:#000000;stroke-width:1px;stroke-linecap:butt;stroke-linejoin:miter;stroke-opacity:1"
       d="M 49.200671,800.34591 131.68415,593.41368 128.78999,393.71683 344.4047,221.51449 259.02706,476.20031 416.75862,558.68379 539.7603,418.31718 480.43008,298.20966 632.37333,412.52886 607.773,561.57795 701.8331,806.13422 Z"
       id="path3409"
       inkscape:connector-curvature="0"
       sodipodi:nodetypes="cccccccccccc">
      <title
         id="title3411"
         style="fill:url(#pattern5032)">rock</title>
    </path>
  </g>
  <g
     inkscape:groupmode="layer"
     id="deep"
     inkscape:label="deep"
     style="display:inline">
    <path
       style="display:inline;fill:url(#tarmac);fill-rule:evenodd;stroke:#000000;stroke-width:1.11984849px;stroke-linecap:butt;stroke-linejoin:miter;stroke-opacity:1;fill-opacity:1"
       d="m -428.85771,759.18849 329.483926,2.36238 610.967624,1.92738 589.34936,-0.63523 -3.8529,141.08899 -1524.43671,-1.02239 z"
       id="path3397"
       inkscape:connector-curvature="0"
       sodipodi:nodetypes="ccccccc">
      <title
         id="title3399">desert</title>
    </path>
  </g>
  <g
     inkscape:groupmode="layer"
     id="world"
     inkscape:label="world">
    <path
       style="fill:url(#pattern5852);fill-opacity:1;fill-rule:evenodd;stroke:#000000;stroke-width:1px;stroke-linecap:butt;stroke-linejoin:miter;stroke-opacity:1"
       d="m 227.5401,595.68737 4.21451,-37.90749 16.49337,0.97559 1.50474,68.00517 -57.62733,-0.55681 -32.69847,32.84391 1.0809,57.13831 27.14337,29.97986 214.63665,2.30982 25.03923,-38.92569 27.41919,-0.42383 20.85851,38.75012 116.64408,-1.18374 27.23116,-28.73589 2.39759,-60.42618 -38.04789,-31.4846 -106.33897,-1.88599 -23.63475,43.2368 -23.69242,0.24828 -29.02935,-41.99539 -108.45817,1.44707 -0.84769,-69.03593 14.76768,0.26334 1.50022,37.47989 40.40062,14.39119 240.95548,2.11231 45.05006,38.42654 -3.06972,112.75164 -486.6646,-2.04648 -0.29594,-112.45958 40.12201,-37.76313 z"
       id="path3370"
       inkscape:connector-curvature="0"
       sodipodi:nodetypes="cccccccccccccccccccccccccccccccc">
      <title
         id="title3395"
         style="fill:url(#pattern5852)">tarmac</title>
    </path>
  </g>
  <g
     inkscape:groupmode="layer"
     id="fore"
     inkscape:label="fore"
     style="display:inline">
    <path
       style="fill:url(#dryrock);fill-rule:evenodd;stroke:#000000;stroke-width:1px;stroke-linecap:butt;stroke-linejoin:miter;stroke-opacity:1;fill-opacity:1.0"
       d="m 408.79969,762.9465 20.98264,-36.17697 11.57662,-68.73623 -11.57662,-22.42972 19.53556,22.42972 -6.51186,64.395 6.51186,41.24174 z"
       id="path3413"
       inkscape:connector-curvature="0" />
  </g>
  <g
     inkscape:groupmode="layer"
     id="sensor"
     inkscape:label="sensor"
     style="display:inline;opacity:1">
    <rect
       style="fill:none;fill-rule:evenodd;stroke:#000000;stroke-width:1px;stroke-linecap:butt;stroke-linejoin:miter;stroke-opacity:1"
       id="start"
       width="137.47246"
       height="124.44875"
       x="190.29083"
       y="205.82127"
       inkscape:label="#rect3356">
      <desc
         id="desc4185">dlg,intro1</desc>
    </rect>
    <rect
       style="display:inline;opacity:1;fill:none;fill-rule:evenodd;stroke:#000000;stroke-width:0.54553986px;stroke-linecap:butt;stroke-linejoin:miter;stroke-opacity:1"
       id="start-7"
       width="87.279167"
       height="58.337605"
       x="227.68764"
       y="612.22314"
       inkscape:label="#rect3356">
      <desc
         id="desc4185-0">dlg,intro2</desc>
    </rect>
    <rect
       style="display:inline;opacity:1;fill:none;fill-rule:evenodd;stroke:#000000;stroke-width:0.40120724px;stroke-linecap:butt;stroke-linejoin:miter;stroke-opacity:1"
       id="start-7-7"
       width="30.98744"
       height="88.87059"
       x="455.5304"
       y="643.26312"
       inkscape:label="#rect3356">
      <desc
         id="desc4185-0-8">dlg,intro3</desc>
    </rect>
    <rect
       style="fill:none;stroke:#000000;stroke-width:1.18010378;stroke-opacity:1"
       id="rect4876"
       width="1066.0349"
       height="64.283958"
       x="-163.62819"
       y="-215.34091">
      <desc
         id="desc4887">dlg,where</desc>
    </rect>
    <rect
       style="fill:none;stroke:#000000;stroke-width:1.17129779;stroke-opacity:1"
       id="rect4880"
       width="62.246284"
       height="902.32556"
       x="840.16492"
       y="-148.83478">
      <desc
         id="desc4885">dlg,where</desc>
    </rect>
    <rect
       style="display:inline;opacity:1;fill:none;stroke:#000000;stroke-width:1.21197999;stroke-opacity:1"
       id="rect4334"
       width="71.414749"
       height="913.54053"
       x="-156.44957"
       y="-151.88417"
       ry="0">
      <desc
         id="desc4889">dlg,where</desc>
    </rect>
    <rect
       style="display:inline;opacity:1;fill:none;stroke:#000000;stroke-opacity:1"
       id="rect4893"
       width="110.50982"
       height="1178.7714"
       x="-540.2702"
       y="-298.31332">
      <desc
         id="desc4903">dlg,getback,oob</desc>
    </rect>
    <rect
       style="display:inline;opacity:1;fill:none;stroke:#000000;stroke-width:1.25751185;stroke-opacity:1"
       id="rect4895"
       width="1714.691"
       height="73.415695"
       x="-498.92102"
       y="-375.2485">
      <desc
         id="desc4899">dlg,getback,oob</desc>
    </rect>
    <rect
       style="display:inline;opacity:1;fill:none;stroke:#000000;stroke-opacity:1"
       id="rect4897"
       width="106.41686"
       height="1195.1432"
       x="1101.0052"
       y="-298.31332">
      <desc
         id="desc4901">dlg,getback,oob</desc>
    </rect>
    <rect
       style="display:inline;opacity:1;fill:none;stroke:#000000;stroke-width:2.62262607;stroke-opacity:1"
       id="rect4988"
       width="88.819778"
       height="102.56702"
       x="227.27907"
       y="632.79718">
      <desc
         id="desc4992">ccrg,dlg,intro4</desc>
    </rect>
    <rect
       style="display:inline;opacity:1;fill:none;stroke:#000000;stroke-width:2.55947375;stroke-opacity:1"
       id="rect4988-4"
       width="84.541695"
       height="102.63017"
       x="224.71515"
       y="447.53961">
      <desc
         id="desc4992-7">ccrg,dlg,intro5</desc>
    </rect>
    <rect
       style="display:inline;opacity:1;fill:none;stroke:#000000;stroke-width:2.13502359;stroke-opacity:1"
       id="rect4895-8"
       width="1460.0502"
       height="248.53531"
       x="-398.49567"
       y="-256.81625">
      <desc
         id="desc4899-1">ccrg,end</desc>
    </rect>
  </g>
  <g
     inkscape:groupmode="layer"
     id="ents"
     inkscape:label="ents">
    <text
       xml:space="preserve"
       style="font-style:normal;font-weight:normal;font-size:10px;line-height:125%;font-family:sans-serif;letter-spacing:0px;word-spacing:0px;display:inline;opacity:1;fill:#000000;fill-opacity:1;stroke:none;stroke-width:1px;stroke-linecap:butt;stroke-linejoin:miter;stroke-opacity:1"
       x="526.37488"
       y="667.80103"
       id="text4288"
       sodipodi:linespacing="125%"><tspan
         sodipodi:role="line"
         x="526.37488"
         y="667.80103"
         id="tspan4292">c</tspan></text>
    <text
       xml:space="preserve"
       style="font-style:normal;font-weight:normal;font-size:10px;line-height:125%;font-family:sans-serif;letter-spacing:0px;word-spacing:0px;fill:#000000;fill-opacity:1;stroke:none;stroke-width:1px;stroke-linecap:butt;stroke-linejoin:miter;stroke-opacity:1"
       x="262.60217"
       y="300.93683"
       id="text4296"
       sodipodi:linespacing="125%"><tspan
         sodipodi:role="line"
         id="tspan4298"
         x="262.60217"
         y="300.93683">p</tspan></text>
  </g>
</svg>
