<?xml version="1.0" encoding="UTF-8" standalone="no"?>
<!-- Created with Inkscape (http://www.inkscape.org/) -->

<svg
   xmlns:dc="http://purl.org/dc/elements/1.1/"
   xmlns:cc="http://creativecommons.org/ns#"
   xmlns:rdf="http://www.w3.org/1999/02/22-rdf-syntax-ns#"
   xmlns:svg="http://www.w3.org/2000/svg"
   xmlns="http://www.w3.org/2000/svg"
   xmlns:xlink="http://www.w3.org/1999/xlink"
   xmlns:sodipodi="http://sodipodi.sourceforge.net/DTD/sodipodi-0.dtd"
   xmlns:inkscape="http://www.inkscape.org/namespaces/inkscape"
   width="210mm"
   height="297mm"
   viewBox="0 0 744.09448819 1052.3622047"
   id="svg3348"
   version="1.1"
   inkscape:version="0.91 r13725"
   sodipodi:docname="level4.svg">
  <defs
     id="defs3350">
    <pattern
       inkscape:collect="always"
       xlink:href="#tarmac"
       id="pattern6414"
       patternTransform="translate(484.33371,369.59743)" />
    <pattern
       patternUnits="userSpaceOnUse"
       width="128"
       height="128"
       patternTransform="translate(489.24417,171.21469)"
       id="tarmac">
      <image
         sodipodi:absref="/Users/matthewlander/Documents/dev/spacetrucker/android/assets/levels/textures/tarmac.png"
         xlink:href="textures/tarmac.png"
         y="0"
         x="0"
         id="image5039"
         preserveAspectRatio="none"
         height="128"
         width="128" />
    </pattern>
    <pattern
       patternUnits="userSpaceOnUse"
       width="128"
       height="128"
       patternTransform="translate(345.8826,223.12213)"
       id="smallrock">
      <image
         sodipodi:absref="/Users/matthewlander/Documents/dev/spacetrucker/android/assets/levels/textures/smallrock.png"
         xlink:href="textures/smallrock.png"
         y="0"
         x="0"
         id="image5028"
         preserveAspectRatio="none"
         height="128"
         width="128" />
    </pattern>
    <pattern
       patternUnits="userSpaceOnUse"
       width="128"
       height="128"
       patternTransform="translate(346.17749,223.12213)"
       id="rock">
      <image
         sodipodi:absref="/Users/matthewlander/Documents/dev/spacetrucker/android/assets/levels/textures/rock.png"
         xlink:href="textures/rock.png"
         y="0"
         x="0"
         id="image5017"
         preserveAspectRatio="none"
         height="128"
         width="128" />
    </pattern>
    <pattern
       patternUnits="userSpaceOnUse"
       width="128"
       height="128"
       patternTransform="translate(346.17749,222.53235)"
       id="dryrock">
      <image
         sodipodi:absref="/Users/matthewlander/Documents/dev/spacetrucker/android/assets/levels/textures/dryrock.png"
         xlink:href="textures/dryrock.png"
         y="0"
         x="0"
         id="image5006"
         preserveAspectRatio="none"
         height="128"
         width="128" />
    </pattern>
    <pattern
       patternUnits="userSpaceOnUse"
       width="128"
       height="128"
       patternTransform="translate(345.58771,222.53235)"
       id="desert">
      <image
         sodipodi:absref="/Users/matthewlander/Documents/dev/spacetrucker/android/assets/levels/textures/desert.png"
         xlink:href="textures/desert.png"
         y="0"
         x="0"
         id="image4995"
         preserveAspectRatio="none"
         height="128"
         width="128" />
    </pattern>
    <pattern
       patternUnits="userSpaceOnUse"
       width="128"
       height="128"
       patternTransform="translate(345.58771,222.82724)"
       id="cracked">
      <image
         sodipodi:absref="/Users/matthewlander/Documents/dev/spacetrucker/android/assets/levels/textures/cracked.png"
         xlink:href="textures/cracked.png"
         y="0"
         x="0"
         id="image4984"
         preserveAspectRatio="none"
         height="128"
         width="128" />
    </pattern>
    <pattern
       patternUnits="userSpaceOnUse"
       width="128"
       height="128"
       patternTransform="translate(346.17749,220.17326)"
       id="bigrock">
      <image
         sodipodi:absref="/Users/matthewlander/Documents/dev/spacetrucker/android/assets/levels/textures/bigrock.png"
         xlink:href="textures/bigrock.png"
         y="0"
         x="0"
         id="image4973"
         preserveAspectRatio="none"
         height="128"
         width="128" />
    </pattern>
    <pattern
       patternUnits="userSpaceOnUse"
       width="128"
       height="128"
       patternTransform="translate(489.24417,171.21469)"
       id="tarmac-0">
      <image
         sodipodi:absref="/Users/matthewlander/Documents/dev/spacetrucker/android/assets/levels/textures/tarmac.png"
         xlink:href="textures/tarmac.png"
         width="128"
         height="128"
         preserveAspectRatio="none"
         id="image5039-9"
         x="0"
         y="0" />
    </pattern>
  </defs>
  <sodipodi:namedview
     id="base"
     pagecolor="#ffffff"
     bordercolor="#666666"
     borderopacity="1.0"
     inkscape:pageopacity="0.0"
     inkscape:pageshadow="2"
     inkscape:zoom="0.68207245"
     inkscape:cx="151.26384"
     inkscape:cy="583.50317"
     inkscape:document-units="px"
     inkscape:current-layer="ents"
     showgrid="false"
     inkscape:window-width="1277"
     inkscape:window-height="686"
     inkscape:window-x="0"
     inkscape:window-y="1"
     inkscape:window-maximized="0"
     showguides="true"
     inkscape:guide-bbox="true" />
  <metadata
     id="metadata3353">
    <rdf:RDF>
      <cc:Work
         rdf:about="">
        <dc:format>image/svg+xml</dc:format>
        <dc:type
           rdf:resource="http://purl.org/dc/dcmitype/StillImage" />
        <dc:title />
      </cc:Work>
    </rdf:RDF>
  </metadata>
  <g
     inkscape:groupmode="layer"
     id="back"
     inkscape:label="back" />
  <g
     inkscape:groupmode="layer"
     id="deep"
     inkscape:label="deep"
     style="display:inline">
    <path
       style="display:inline;fill:url(#pattern6414);fill-opacity:1;fill-rule:evenodd;stroke:#000000;stroke-width:1.11984849px;stroke-linecap:butt;stroke-linejoin:miter;stroke-opacity:1"
       d="m -433.76817,957.57123 329.48392,2.36238 610.96763,1.92738 589.34932,-0.63523 -3.8529,141.08894 -1524.43667,-1.0223 z"
       id="path3397"
       inkscape:connector-curvature="0"
       sodipodi:nodetypes="ccccccc">
      <title
         id="title3399"
         style="fill:url(#pattern6414)">desert</title>
    </path>
  </g>
  <g
     inkscape:groupmode="layer"
     id="world"
     inkscape:label="world">
    <path
       style="display:inline;fill:url(#dryrock);fill-opacity:1;fill-rule:evenodd;stroke:#000000;stroke-width:1px;stroke-linecap:butt;stroke-linejoin:miter;stroke-opacity:1"
       d="M 146.24013,350.53761 150,482.91776 l 130.72406,-1.29019 67.88705,-105.65425 106.94445,-65.27778 159.72222,-1.38888 125,63.88888 79.16666,136.11111 -2.77777,148.61112 -59.72223,109.72221 -116.17313,85.66344 -177.82363,3.11477 -129.13775,-81.49676 -43.37226,-33.23343 -147.46678,0.48732 -28.68474,52.4973 -51.302418,0.27794 -23.582435,-76.05265 28.464822,-83.38325 54.278431,0.56457 11.30399,25.19491 139.55837,-1.96749 -3.42287,-93.46236 -216.806262,0.4068 0,-219.44444 -222.222218,8.33333 5.55555,644.44445 1116.66667,-2.77778 6.94444,-644.44444 L 804.16667,348.19554 673.61111,232.91776 397.22222,230.13998 261.07023,351.1827 Z"
       id="path6412"
       inkscape:connector-curvature="0"
       sodipodi:nodetypes="cccccccccccccccccccccccccccccccccc" />
  </g>
  <g
     inkscape:groupmode="layer"
     id="dynamic"
     inkscape:label="dynamic"
     style="opacity:0.99">
    <g
       id="g6513"
       style="fill:url(#tarmac);fill-opacity:1">
      <desc
         id="desc6519">rot,-0.2</desc>
      <path
         sodipodi:nodetypes="ccccccccc"
         inkscape:connector-curvature="0"
         id="path6423"
         d="m 774.27977,533.15552 27.83505,29.67454 2.84044,36.89058 -27.73356,30.79267 -475.12632,0.79744 -26.4475,-30.70174 -0.0636,-37.9201 27.737,-28.74295 z"
         style="fill:url(#tarmac);fill-opacity:1;fill-rule:evenodd;stroke:#000000;stroke-width:0.85912931px;stroke-linecap:butt;stroke-linejoin:miter;stroke-opacity:1" />
      <path
         sodipodi:nodetypes="ccccccccc"
         inkscape:connector-curvature="0"
         id="path6423-5"
         d="m 586.72808,815.23345 -30.23968,27.22003 -36.94111,2.08256 -30.21688,-28.35982 8.95599,-475.04257 31.23818,-25.81169 37.91341,0.71483 28.16752,28.32118 z"
         style="opacity:0.98000004;fill:url(#tarmac);fill-opacity:1;fill-rule:evenodd;stroke:#000000;stroke-width:0.85912931px;stroke-linecap:butt;stroke-linejoin:miter;stroke-opacity:1" />
    </g>
  </g>
  <g
     inkscape:groupmode="layer"
     id="fore"
     inkscape:label="fore"
     style="display:inline" />
  <g
     inkscape:groupmode="layer"
     id="sensor"
     inkscape:label="sensor"
     style="display:inline;opacity:1">
    <rect
       style="fill:none;stroke:#000000;stroke-width:1.2430898;stroke-opacity:1"
       id="rect4876"
       width="1184.0275"
       height="64.22097"
       x="-163.59669"
       y="-215.30942">
      <desc
         id="desc4887">dlg,where</desc>
    </rect>
    <rect
       style="fill:none;stroke:#000000;stroke-width:1.1819576;stroke-opacity:1"
       id="rect4880"
       width="62.235626"
       height="918.98157"
       x="954.05908"
       y="-150.21832">
      <desc
         id="desc4885">dlg,where</desc>
    </rect>
    <rect
       style="display:inline;opacity:1;fill:none;stroke:#000000;stroke-width:1.21197999;stroke-opacity:1"
       id="rect4334"
       width="71.414749"
       height="913.54053"
       x="-156.44957"
       y="-151.88417"
       ry="0">
      <desc
         id="desc4889">dlg,where</desc>
    </rect>
    <rect
       style="display:inline;opacity:1;fill:none;stroke:#000000;stroke-opacity:1"
       id="rect4893"
       width="110.50982"
       height="1178.7714"
       x="-540.2702"
       y="-298.31332">
      <desc
         id="desc4903">dlg,getback,oob</desc>
    </rect>
    <rect
       style="display:inline;opacity:1;fill:none;stroke:#000000;stroke-width:1.25751185;stroke-opacity:1"
       id="rect4895"
       width="1714.691"
       height="73.415695"
       x="-498.92102"
       y="-375.2485">
      <desc
         id="desc4899">dlg,getback,oob</desc>
    </rect>
    <rect
       style="display:inline;opacity:1;fill:none;stroke:#000000;stroke-opacity:1"
       id="rect4897"
       width="106.41686"
       height="1195.1432"
       x="1101.0052"
       y="-298.31332">
      <desc
         id="desc4901">dlg,getback,oob</desc>
    </rect>
    <rect
       style="display:inline;opacity:1;fill:none;stroke:#000000;stroke-width:1.76463366;stroke-opacity:1"
       id="rect4895-8"
       width="1460.4205"
       height="169.73903"
       x="-398.68085"
       y="-257.00143">
      <desc
         id="desc4899-1">ccrg,end</desc>
    </rect>
  </g>
  <g
     inkscape:groupmode="layer"
     id="ents"
     inkscape:label="ents">
    <text
       xml:space="preserve"
       style="font-style:normal;font-weight:normal;font-size:54.42386246px;line-height:125%;font-family:sans-serif;letter-spacing:0px;word-spacing:0px;fill:#000000;fill-opacity:1;stroke:none;stroke-width:1px;stroke-linecap:butt;stroke-linejoin:miter;stroke-opacity:1"
       x="81.039635"
       y="334.75418"
       id="text4296"
       sodipodi:linespacing="125%"><tspan
         sodipodi:role="line"
         id="tspan4298"
         x="81.039635"
         y="334.75418">p</tspan></text>
    <text
       xml:space="preserve"
       style="font-style:normal;font-weight:normal;font-size:40px;line-height:125%;font-family:sans-serif;letter-spacing:0px;word-spacing:0px;fill:#000000;fill-opacity:1;stroke:none;stroke-width:1px;stroke-linecap:butt;stroke-linejoin:miter;stroke-opacity:1"
       x="87.967194"
       y="760.60437"
       id="text6476"
       sodipodi:linespacing="125%"><tspan
         sodipodi:role="line"
         x="87.967194"
         y="760.60437"
         id="tspan6480">c</tspan></text>
  </g>
</svg>
