{
  dialogues: [
    {
      name: "intro1",
      text: "Welcome to the company squirt!\nYour first job is to pick up a parcel your predecesor dropped.",
      avatar: "lizard",
      time: 4,
      next: "intro1a"
    },
    {
      name: "intro1a",
      text: "It's down in the cave below you,\n feather your thrusters to slow your descent\n(UP Cursor)",
      avatar: "lizard",
      time: 4
    },
    {
      name: "intro2",
      text: "You're a natural kid!\nnow edge to your right\n(LEFT and RIGHT Cursor keys to turn\nUP to thrust in that direction)",
      avatar: "lizard",
      time: 5
    },
    {
      name: "intro3",
      text: "Hey wow he made it!\nEd, you owe me five Kablarkians!",
      avatar: "lizard",
      time: 2,
      next: "intro3a"
    },
    {
      name: "intro3a",
      text: "Goddamin Keith!",
      avatar: "brain",
      time: 1,
      next: "intro3b"
    },
    {
      name: "intro3b",
      text: "Now pick up that crate\nhover near it and activate your tether\n(press ALT)",
      avatar: "lizard",
      time: 5,
      next: "intro3c"
    },
    {
      name: "intro3c",
      text: "then get out of here!",
      avatar: "lizard",
      time: 2
    },
    {
      name: "intro4",
      text: "You're almost there kid!",
      avatar: "lizard",
      time: 3
    },
    {
      name: "intro5",
      text: "I knew you could do it,\njust head straight up",
      avatar: "lizard",
      time: 3,
      next: "intro5a"
    },
    {
      name: "intro5a",
      text: "You're not as useless as you look!\nNo hard feelings fella?",
      avatar: "brain",
      time: 3
    },


    {
      name: "where",
      text: "Where do you think you're going??",
      avatar: "lizard",
      time: 5
    },
    {
      name: "getback",
      text: "OI! get back here!",
      avatar: "lizard",
      time: 5
    },

    {
      name: "test",
      text: "test",
      avatar: "shroom",
      time: 1
    }

  ]
}
