{
  dialogues: [
    {
      name: "intro",
      text: "Keith said you could help out with this thing,\nIt's a bit complex but I'm sure you're up to it",
      avatar: "brain",
      time: 5,
      next: "intro2"
    },
    {
      name: "intro2",
      text: "you've got to deliver that parcel into this cave system",
      avatar: "brain",
      time:3
    },
    {
      name: "nothanks",
      text: "No deliveries today thank you!",
      avatar: "shroom",
      time: 4

    },
    {
      name: "nothanks2",
      text: "Hey dude, not cool!",
      avatar: "shroom",
      time: 4
    },
    {
      name: "ohcrap",
      text: "Hey what are you doing down there?, did Ed talk to you?",
      avatar: "lizard",
      time: 3,
      next: "ohcrap2"
    },

    {
      name: "ohcrap2",
      text: "YOU DID WHAT?!?!",
      avatar: "lizard",
      time: 3,
      next: "ohcrap3"
    },
    {
      name: "ohcrap3",
      text: "GET OUT!!...NOW!!",
      avatar: "lizard",
      time: 3
    },
    {
      name: "boom",
      text: "I woinder what's in this bo....",
      avatar: "shroom",
      time: 3,
      next:"boom2"
    },
    {
      name: "boom2",
      text: "*BOOOM*",
      avatar: "explode",
      time: 3
    },


    {
      name: "where",
      text: "Where you off to? we got a delivery to make!",
      avatar: "brain",
      time: 5
    },
    {
      name: "getback",
      text: "man! I thought you were cool",
      avatar: "brain",
      time: 5
    }
  ]
}
